%!PS-Adobe-3.0 EPSF-3.0
%%Creator: cairo 1.16.0 (https://cairographics.org)
%%CreationDate: Sat Apr 22 00:11:43 2023
%%Pages: 1
%%DocumentData: Clean7Bit
%%LanguageLevel: 2
%%BoundingBox: 0 0 203 56
%%EndComments
%%BeginProlog
50 dict begin
/q { gsave } bind def
/Q { grestore } bind def
/cm { 6 array astore concat } bind def
/w { setlinewidth } bind def
/J { setlinecap } bind def
/j { setlinejoin } bind def
/M { setmiterlimit } bind def
/d { setdash } bind def
/m { moveto } bind def
/l { lineto } bind def
/c { curveto } bind def
/h { closepath } bind def
/re { exch dup neg 3 1 roll 5 3 roll moveto 0 rlineto
      0 exch rlineto 0 rlineto closepath } bind def
/S { stroke } bind def
/f { fill } bind def
/f* { eofill } bind def
/n { newpath } bind def
/W { clip } bind def
/W* { eoclip } bind def
/BT { } bind def
/ET { } bind def
/BDC { mark 3 1 roll /BDC pdfmark } bind def
/EMC { mark /EMC pdfmark } bind def
/cairo_store_point { /cairo_point_y exch def /cairo_point_x exch def } def
/Tj { show currentpoint cairo_store_point } bind def
/TJ {
  {
    dup
    type /stringtype eq
    { show } { -0.001 mul 0 cairo_font_matrix dtransform rmoveto } ifelse
  } forall
  currentpoint cairo_store_point
} bind def
/cairo_selectfont { cairo_font_matrix aload pop pop pop 0 0 6 array astore
    cairo_font exch selectfont cairo_point_x cairo_point_y moveto } bind def
/Tf { pop /cairo_font exch def /cairo_font_matrix where
      { pop cairo_selectfont } if } bind def
/Td { matrix translate cairo_font_matrix matrix concatmatrix dup
      /cairo_font_matrix exch def dup 4 get exch 5 get cairo_store_point
      /cairo_font where { pop cairo_selectfont } if } bind def
/Tm { 2 copy 8 2 roll 6 array astore /cairo_font_matrix exch def
      cairo_store_point /cairo_font where { pop cairo_selectfont } if } bind def
/g { setgray } bind def
/rg { setrgbcolor } bind def
/d1 { setcachedevice } bind def
/cairo_data_source {
  CairoDataIndex CairoData length lt
    { CairoData CairoDataIndex get /CairoDataIndex CairoDataIndex 1 add def }
    { () } ifelse
} def
/cairo_flush_ascii85_file { cairo_ascii85_file status { cairo_ascii85_file flushfile } if } def
/cairo_image { image cairo_flush_ascii85_file } def
/cairo_imagemask { imagemask cairo_flush_ascii85_file } def
%%EndProlog
%%BeginSetup
%%EndSetup
%%Page: 1 1
%%BeginPageSetup
%%PageBoundingBox: 0 0 203 56
%%EndPageSetup
q 0 0 203 56 rectclip
1 0 0 -1 0 56 cm q
0 g
122.008 23.965 m 122.008 18.27 125.977 15.215 130.352 15.215 c 132.691 
15.215 134.934 15.926 136.254 16.742 c 135.137 20.914 l 135.035 20.914 l
 133.711 16.945 132.895 15.52 130.352 15.52 c 127.707 15.52 124.754 17.656
 124.754 23.355 c 124.754 28.238 127.605 31.09 130.758 31.09 c 133 31.09
 135.441 30.273 136.559 26.613 c 136.66 26.613 l 136.254 30.172 133.812 
33.023 130.047 33.023 c 125.469 33.023 122.008 29.562 122.008 23.965 c h
122.008 23.965 m f
147.652 30.887 m 149.281 28.648 l 149.383 28.648 l 148.566 32.719 l 138.086
 32.719 l 138.086 32.617 l 139.105 32.516 139.715 32.207 139.715 30.988 
c 139.715 20.609 l 139.715 19.387 139.105 19.082 138.086 18.98 c 138.086
 18.879 l 148.16 18.879 l 148.973 22.746 l 148.871 22.746 l 147.246 20.711
 l 146.531 19.793 146.023 19.082 145.004 19.082 c 141.75 19.082 l 141.75
 25.289 l 143.988 25.289 l 145.82 25.289 146.328 24.375 146.531 23.051 c
 146.633 23.051 l 146.633 27.832 l 146.531 27.832 l 146.328 26.512 145.82
 25.594 143.988 25.594 c 141.75 25.594 l 141.75 32.516 l 145.414 32.516 
l 146.43 32.516 146.938 31.801 147.652 30.887 c h
147.652 30.887 m f
151.113 25.695 m 151.113 21.219 154.266 18.676 157.727 18.676 c 159.559
 18.676 161.391 19.184 162.406 19.895 c 161.492 23.254 l 161.391 23.254 
l 160.27 20.098 159.762 18.98 157.625 18.98 c 155.59 18.98 153.148 20.711
 153.148 25.188 c 153.148 29.156 155.387 31.395 157.93 31.395 c 159.762 
31.395 161.695 30.785 162.508 27.832 c 162.609 27.832 l 162.305 30.684 160.371
 32.922 157.32 32.922 c 153.859 32.922 151.113 30.172 151.113 25.695 c h
151.113 25.695 m f
164.137 32.719 m 164.137 32.617 l 165.152 32.516 165.766 32.207 165.766
 30.988 c 165.766 20.609 l 165.766 19.387 165.152 19.082 164.137 18.98 c
 164.137 18.879 l 169.43 18.879 l 169.43 18.98 l 168.41 19.082 167.801 19.387
 167.801 20.609 c 167.801 30.988 l 167.801 32.207 168.41 32.516 169.43 32.617
 c 169.43 32.719 l h
164.137 32.719 m f
179.297 30.887 m 181.027 28.035 l 181.129 28.035 l 180.418 32.82 l 170.648
 32.82 l 170.648 32.719 l 171.668 32.617 172.277 32.309 172.277 31.09 c 
172.277 20.609 l 172.277 19.387 171.668 19.082 170.648 18.98 c 170.648 18.879
 l 175.941 18.879 l 175.941 18.98 l 174.922 19.082 174.312 19.387 174.312
 20.609 c 174.312 32.516 l 177.16 32.516 l 178.078 32.516 178.688 31.902
 179.297 30.887 c h
179.297 30.887 m f
182.25 32.719 m 182.25 32.617 l 183.266 32.516 183.879 32.207 183.879 30.988
 c 183.879 20.609 l 183.879 19.387 183.266 19.082 182.25 18.98 c 182.25 
18.879 l 187.543 18.879 l 187.543 18.98 l 186.523 19.082 185.914 19.387 
185.914 20.609 c 185.914 30.988 l 185.914 32.207 186.523 32.516 187.543 
32.617 c 187.543 32.719 l h
182.25 32.719 m f
196.293 32.719 m 196.293 32.617 l 197.105 32.516 198.023 32.004 197.617
 30.988 c 196.699 28.344 l 191.102 28.344 l 190.391 30.273 l 189.68 32.105
 190.492 32.516 191.41 32.617 c 191.41 32.719 l 187.848 32.719 l 187.848
 32.617 l 188.762 32.516 189.477 32.004 190.086 30.172 c 193.75 20.199 l
 193.445 19.285 193.137 18.879 192.223 18.879 c 192.223 18.777 l 195.375
 18.777 l 199.754 30.887 l 200.16 31.902 200.465 32.414 201.688 32.516 c
 201.688 32.719 l h
196.699 28.137 m 194.055 20.711 l 191.305 28.137 l h
196.699 28.137 m f
74.691 32.922 m 74.691 32.82 l 75.504 32.719 76.418 32.207 76.012 31.191
 c 75.098 28.547 l 69.5 28.547 l 68.789 30.48 l 68.074 32.309 68.891 32.719
 69.805 32.82 c 69.805 32.922 l 66.242 32.922 l 66.242 32.82 l 67.16 32.719
 67.871 32.207 68.484 30.379 c 72.145 20.406 l 71.84 19.488 71.535 19.082
 70.621 19.082 c 70.621 18.98 l 73.773 18.98 l 78.148 31.09 l 78.559 32.105
 78.863 32.617 80.082 32.719 c 80.082 32.82 l 74.691 32.82 l h
74.996 28.344 m 72.348 20.812 l 69.602 28.238 l 74.996 28.238 l h
74.996 28.344 m f
90.77 32.922 m 82.422 21.016 l 82.422 30.379 l 82.422 32.207 83.035 32.719
 84.051 32.82 c 84.051 32.922 l 80.492 32.922 l 80.492 32.82 l 81.508 32.719
 82.117 32.207 82.117 30.379 c 82.117 20.711 l 81.711 20.199 l 81.305 19.59
 80.797 19.285 80.285 19.184 c 80.285 19.082 l 83.441 19.082 l 90.973 29.664
 l 90.973 21.625 l 90.973 19.793 90.359 19.285 89.344 19.184 c 89.344 19.082
 l 92.906 19.082 l 92.906 19.184 l 91.887 19.285 91.277 19.793 91.277 21.625
 c 91.277 32.922 l h
90.77 32.922 m f
97.078 32.922 m 97.078 32.82 l 98.094 32.719 98.707 32.414 98.707 31.191
 c 98.707 19.285 l 97.078 19.285 l 96.262 19.285 95.957 19.996 95.348 20.914
 c 93.82 23.254 l 93.719 23.254 l 94.328 18.98 l 105.016 18.98 l 105.625
 23.254 l 105.523 23.254 l 103.996 20.914 l 103.387 19.996 102.98 19.285
 102.266 19.285 c 100.742 19.285 l 100.742 31.191 l 100.742 32.414 101.352
 32.719 102.367 32.82 c 102.367 32.922 l 102.367 32.922 97.078 32.922 97.078
 32.922 c h
97.078 32.922 m f
112.645 32.922 m 112.645 32.82 l 113.461 32.719 114.375 32.207 113.969 
31.191 c 113.055 28.547 l 107.457 28.547 l 106.746 30.48 l 106.031 32.309
 106.848 32.719 107.762 32.82 c 107.762 32.922 l 104.199 32.922 l 104.199
 32.82 l 105.117 32.719 105.828 32.207 106.438 30.379 c 110.102 20.406 l
 109.797 19.488 109.492 19.082 108.574 19.082 c 108.574 18.98 l 111.73 18.98
 l 116.105 31.09 l 116.512 32.105 116.82 32.617 118.039 32.719 c 118.039
 32.82 l 112.645 32.82 l h
113.055 28.344 m 110.406 20.914 l 107.66 28.344 l h
113.055 28.344 m f
60.953 23.051 m 57.898 22.133 l 55.355 21.422 54.746 20.199 54.746 18.676
 c 54.746 16.844 56.168 15.621 58.512 15.621 c 61.156 15.621 62.07 16.742
 63.801 20.711 c 63.902 20.711 l 64.004 15.316 l 62.48 15.316 60.75 15.316
 58.512 15.316 c 55.762 15.316 52.711 16.945 52.711 19.793 c 52.711 21.93
 54.031 23.66 56.781 24.477 c 59.934 25.391 l 62.172 26 63.191 27.223 63.191
 29.156 c 63.191 30.887 62.172 32.922 59.527 32.922 c 56.68 32.922 55.355
 31.699 52.914 26.918 c 52.812 26.918 l 52.711 33.227 l 53.32 33.227 l 53.32
 33.227 54.746 33.227 56.68 33.227 c 57.594 33.227 58.512 33.227 59.527 
33.227 c 62.887 33.227 65.43 30.988 65.43 27.934 c 65.328 25.695 63.902 
23.965 60.953 23.051 c h
60.953 23.051 m f
52.609 41.266 m 52.609 39.535 53.828 38.621 55.152 38.621 c 55.863 38.621
 56.578 38.824 56.984 39.129 c 56.68 40.453 l 56.168 39.129 55.965 38.723
 55.254 38.723 c 54.543 38.723 53.727 39.434 53.727 41.062 c 53.727 42.488
 54.543 43.402 55.457 43.402 c 56.066 43.402 56.781 43.199 57.086 42.18 
c 56.984 43.301 56.168 44.113 55.051 44.113 c 53.727 44.012 52.609 42.996
 52.609 41.266 c h
52.609 41.266 m f
55.051 44.012 m 53.625 44.012 52.508 42.895 52.508 41.266 c 52.508 40.453
 52.812 39.738 53.32 39.23 c 53.828 38.723 54.441 38.52 55.152 38.52 c 55.863
 38.52 56.578 38.723 56.984 39.027 c 56.578 40.453 l 56.477 40.453 l 55.965
 39.129 55.762 38.824 55.152 38.824 c 54.133 38.824 53.625 39.941 53.625
 41.062 c 53.625 42.59 54.543 43.301 55.355 43.301 c 56.168 43.301 56.68
 42.895 56.984 42.078 c 57.086 42.078 l 56.984 43.199 56.168 44.012 55.051
 44.012 c h
55.051 38.723 m 53.93 38.824 52.711 39.637 52.711 41.367 c 52.711 42.895
 53.727 44.012 55.152 44.012 c 56.066 44.012 56.781 43.402 57.086 42.488
 c 56.781 43.098 56.273 43.504 55.457 43.504 c 54.543 43.504 53.625 42.793
 53.625 41.164 c 53.625 39.535 54.234 38.723 55.051 38.723 c h
55.355 38.723 m 55.965 38.824 56.168 39.23 56.578 40.348 c 56.883 39.129
 l 56.578 38.824 55.965 38.723 55.355 38.723 c h
55.355 38.723 m f
61.766 41.875 m 61.766 43.199 60.953 44.012 59.832 44.012 c 58.715 44.012
 57.898 43.199 57.898 41.875 c 57.898 40.555 58.715 39.738 59.832 39.738
 c 60.953 39.738 61.766 40.453 61.766 41.875 c h
58.715 41.875 m 58.715 43.402 59.121 43.91 59.832 43.91 c 60.547 43.91 
60.953 43.301 60.953 41.875 c 60.953 40.348 60.547 39.84 59.832 39.84 c 
59.121 39.84 58.715 40.348 58.715 41.875 c h
58.715 41.875 m f
59.832 44.012 m 58.613 44.012 57.797 43.098 57.797 41.773 c 57.797 40.453
 58.613 39.535 59.832 39.535 c 61.055 39.535 61.867 40.453 61.867 41.773
 c 61.766 43.098 61.055 44.012 59.832 44.012 c h
60.137 39.738 m 60.648 39.941 60.953 40.656 60.953 41.773 c 60.953 42.895
 60.648 43.707 60.137 43.809 c 61.055 43.707 61.664 42.895 61.664 41.773
 c 61.664 40.656 61.055 39.941 60.137 39.738 c h
59.527 39.738 m 58.613 39.84 58 40.656 58 41.773 c 58 42.895 58.613 43.707
 59.527 43.809 c 59.02 43.605 58.715 42.895 58.715 41.773 c 58.715 40.656
 58.918 39.941 59.527 39.738 c h
59.832 39.84 m 59.121 39.84 58.715 40.555 58.715 41.875 c 58.715 43.199
 59.121 43.91 59.832 43.91 c 60.547 43.91 60.852 43.199 60.852 41.875 c 
60.852 40.555 60.547 39.84 59.832 39.84 c h
59.832 39.84 m f
65.531 43.91 m 62.988 40.348 l 62.988 43.098 l 62.988 43.605 63.191 43.809
 63.496 43.809 c 62.48 43.809 l 62.785 43.809 62.988 43.605 62.988 43.098
 c 62.988 40.145 l 62.887 39.941 l 62.785 39.738 62.582 39.637 62.48 39.637
 c 63.598 39.637 l 65.734 42.691 l 65.734 40.453 l 65.734 39.941 65.531 
39.738 65.227 39.738 c 66.242 39.738 l 65.938 39.738 65.734 39.941 65.734
 40.453 c 65.734 43.91 l h
65.531 43.91 m f
65.734 44.012 m 65.531 44.012 l 63.09 40.555 l 63.09 43.199 l 63.09 43.707
 63.293 43.809 63.496 43.91 c 63.496 44.012 l 62.379 44.012 l 62.379 43.91
 l 62.684 43.91 62.785 43.707 62.785 43.199 c 62.785 40.348 l 62.684 40.145
 l 62.582 40.043 62.48 39.941 62.273 39.84 c 62.273 39.738 l 63.496 39.738
 l 65.531 42.59 l 65.531 40.555 l 65.531 40.043 65.328 39.941 65.125 39.84
 c 65.125 39.738 l 66.242 39.738 l 66.242 39.84 l 65.938 39.84 65.836 40.043
 65.836 40.555 c 65.836 44.012 l h
65.531 43.91 m 65.633 42.895 l 63.496 39.84 l 62.582 39.84 l 62.684 39.941
 62.785 39.941 62.887 40.043 c 63.09 40.348 l h
62.684 43.91 m 63.191 43.91 l 62.988 43.809 62.988 43.707 62.887 43.402
 c 62.887 43.605 62.785 43.809 62.684 43.91 c h
65.328 39.738 m 65.43 39.84 65.531 39.941 65.633 40.246 c 65.633 40.043
 65.734 39.84 65.938 39.738 c h
65.328 39.738 m f
66.855 42.383 m 67.566 43.504 67.871 43.809 68.484 43.809 c 69.094 43.809
 69.297 43.402 69.297 42.895 c 69.297 42.488 69.094 42.18 68.586 42.078 
c 67.871 41.875 l 67.262 41.672 66.855 41.266 66.855 40.758 c 66.855 40.043
 67.566 39.637 68.277 39.637 c 68.891 39.637 69.297 39.738 69.703 39.941
 c 69.602 41.062 l 69.094 40.043 68.891 39.84 68.277 39.84 c 67.77 39.84
 67.363 40.145 67.363 40.555 c 67.363 40.961 67.566 41.164 68.074 41.367
 c 68.789 41.57 l 69.5 41.773 69.906 42.18 69.906 42.793 c 69.906 43.504
 69.297 44.113 68.484 44.113 c 67.871 44.113 67.363 43.91 66.754 43.707 
c h
66.855 42.383 m f
68.484 44.012 m 67.871 44.012 67.363 43.91 66.754 43.605 c 66.855 42.383
 l 66.957 42.383 l 67.566 43.504 67.871 43.809 68.484 43.809 c 69.094 43.809
 69.297 43.402 69.297 42.996 c 69.297 42.59 69.094 42.281 68.586 42.18 c
 67.871 41.977 l 67.262 41.773 66.855 41.367 66.855 40.758 c 66.855 39.941
 67.566 39.535 68.383 39.535 c 68.891 39.535 69.398 39.637 69.906 39.84 
c 69.805 40.961 l 69.703 40.961 l 69.195 39.941 68.992 39.738 68.484 39.738
 c 67.973 39.738 67.668 39.941 67.668 40.348 c 67.668 40.758 67.871 40.961
 68.383 41.062 c 69.094 41.266 l 69.805 41.469 70.211 41.875 70.211 42.488
 c 70.008 43.504 69.398 44.012 68.484 44.012 c h
66.855 43.504 m 67.262 43.707 67.668 43.91 68.074 43.91 c 67.668 43.809
 67.363 43.402 66.855 42.59 c h
67.77 39.84 m 67.262 39.941 66.855 40.348 66.855 40.859 c 66.855 41.367
 67.16 41.773 67.77 41.977 c 68.484 42.18 l 68.992 42.281 69.297 42.59 69.297
 43.098 c 69.297 43.402 69.195 43.809 68.789 43.91 c 69.398 43.809 69.805
 43.301 69.805 42.691 c 69.805 42.18 69.398 41.773 68.789 41.57 c 68.074
 41.367 l 67.566 41.266 67.363 40.961 67.363 40.555 c 67.363 40.145 67.566
 39.941 67.77 39.84 c h
68.688 39.738 m 69.094 39.84 69.297 40.145 69.703 40.859 c 69.805 39.941
 l 69.398 39.84 68.992 39.738 68.688 39.738 c h
68.688 39.738 m f
73.469 43.402 m 73.977 42.691 l 73.875 43.91 l 70.621 43.91 l 70.926 43.91
 71.129 43.809 71.129 43.402 c 71.129 40.246 l 71.129 39.84 70.926 39.738
 70.621 39.738 c 73.773 39.738 l 73.977 40.961 l 73.367 40.348 l 73.164 
40.043 72.961 39.84 72.656 39.84 c 71.738 39.84 l 71.738 41.672 l 72.348
 41.672 l 72.859 41.672 73.062 41.367 73.062 40.961 c 73.062 42.488 l 72.961
 42.078 72.859 41.773 72.348 41.773 c 71.738 41.773 l 71.738 43.91 l 72.758
 43.91 l 73.164 43.809 73.266 43.605 73.469 43.402 c h
73.469 43.402 m f
73.875 44.012 m 70.52 44.012 l 70.52 43.91 l 70.824 43.91 70.926 43.809
 70.926 43.504 c 70.926 40.348 l 70.926 40.043 70.723 39.941 70.52 39.941
 c 70.52 39.84 l 73.773 39.84 l 73.977 41.164 l 73.875 41.164 l 73.266 40.453
 l 73.062 40.246 72.961 40.043 72.656 40.043 c 71.84 40.043 l 71.84 41.773
 l 72.453 41.773 l 72.961 41.773 73.062 41.57 73.164 41.164 c 73.367 41.164
 l 73.367 42.793 l 73.266 42.793 l 73.164 42.383 73.062 42.078 72.555 42.078
 c 71.941 42.078 l 71.941 44.113 l 72.859 44.113 l 73.164 44.113 73.266 
43.91 73.469 43.605 c 74.078 42.895 l 74.18 42.895 l h
73.062 43.91 m 73.875 43.91 l 74.078 42.793 l 73.57 43.402 l 73.367 43.605
 73.266 43.809 73.062 43.91 c h
70.926 43.91 m 71.84 43.91 l 71.84 39.84 l 70.926 39.84 l 71.027 39.941
 71.129 40.043 71.129 40.348 c 71.129 43.504 l 71.129 43.707 71.027 43.809
 70.926 43.91 c h
72.656 41.672 m 72.961 41.672 73.062 41.875 73.164 42.078 c 73.164 41.164
 l 73.164 41.469 72.961 41.672 72.656 41.672 c h
72.859 39.738 m 73.062 39.84 73.164 39.941 73.367 40.145 c 73.469 40.246
 l 73.875 40.758 l 73.672 39.738 l h
72.859 39.738 m f
74.691 43.91 m 74.996 43.809 75.199 43.707 75.199 43.402 c 75.199 40.246
 l 75.199 39.84 74.996 39.738 74.691 39.738 c 76.727 39.738 l 77.641 39.738
 78.352 40.145 78.352 40.859 c 78.352 41.57 77.742 41.977 76.828 41.977 
c 76.523 41.977 l 77.336 42.18 l 78.148 43.504 l 78.25 43.707 78.457 43.91
 78.762 44.012 c 77.539 44.012 l 76.418 41.875 l 75.91 41.875 l 75.91 43.402
 l 75.91 43.809 76.113 43.91 76.316 43.91 c h
75.91 39.84 m 75.91 41.875 l 76.625 41.875 l 77.234 41.875 77.641 41.57
 77.641 40.859 c 77.641 40.145 77.234 39.84 76.625 39.84 c h
75.91 39.84 m f
78.762 44.012 m 77.438 44.012 l 76.316 41.977 l 75.91 41.977 l 75.91 43.402
 l 75.91 43.707 76.113 43.809 76.316 43.809 c 76.316 43.91 l 74.488 43.91
 l 74.488 43.809 l 74.793 43.809 74.895 43.707 74.895 43.402 c 74.895 40.246
 l 74.895 39.941 74.691 39.84 74.488 39.84 c 74.488 39.738 l 76.625 39.738
 l 77.641 39.738 78.25 40.145 78.25 40.859 c 78.25 41.469 77.641 41.977 
76.828 41.977 c 77.234 42.078 l 78.047 43.402 l 78.25 43.707 78.352 43.809
 78.66 43.809 c 78.66 44.012 l h
77.539 43.91 m 78.457 43.91 l 78.25 43.809 78.148 43.707 78.047 43.504 
c 77.336 42.18 l 76.523 41.977 l h
74.996 43.91 m 76.113 43.91 l 76.012 43.809 75.91 43.707 75.91 43.402 c
 75.91 39.84 l 74.996 39.84 l 75.098 39.941 75.199 40.043 75.199 40.348 
c 75.199 43.504 l 75.199 43.707 75.098 43.809 74.996 43.91 c h
76.93 39.84 m 77.438 39.941 77.641 40.246 77.641 40.859 c 77.641 41.469
 77.336 41.773 76.93 41.875 c 77.742 41.875 78.352 41.469 78.352 40.859 
c 78.352 40.246 77.742 39.84 76.93 39.84 c h
76.012 41.773 m 76.625 41.773 l 77.234 41.773 77.539 41.469 77.539 40.859
 c 77.539 40.043 77.031 39.941 76.625 39.941 c 76.012 39.941 l h
76.012 41.773 m f
80.797 44.012 m 79.168 40.246 l 79.066 39.941 78.965 39.738 78.559 39.738
 c 80.492 39.738 l 80.285 39.738 79.98 39.941 80.082 40.246 c 81.203 42.895
 l 82.219 40.453 l 82.422 39.84 82.219 39.738 81.914 39.738 c 82.934 39.738
 l 82.629 39.738 82.422 39.941 82.219 40.453 c h
80.797 44.012 m f
80.898 44.012 m 80.797 44.012 l 79.168 40.246 l 79.066 39.941 78.965 39.84
 78.66 39.738 c 78.66 39.637 l 80.492 39.637 l 80.492 39.84 l 80.285 39.84
 80.184 39.941 80.082 40.043 c 80.082 40.145 80.082 40.145 80.082 40.246
 c 81.102 42.793 l 82.016 40.453 l 82.117 40.246 82.117 40.043 82.117 39.941
 c 82.117 39.84 81.914 39.84 81.812 39.84 c 81.812 39.738 l 82.934 39.738
 l 82.934 39.84 l 82.73 39.84 82.527 39.941 82.32 40.555 c h
78.965 39.738 m 79.066 39.84 79.168 39.941 79.27 40.145 c 80.797 43.809
 l 81.102 42.996 l 79.98 40.246 l 79.879 40.145 79.879 40.043 79.98 39.941
 c 79.98 39.84 80.082 39.84 80.184 39.738 c h
82.219 39.738 m 82.32 39.84 l 82.422 39.941 82.422 40.043 82.32 40.246 
c 82.422 40.043 82.527 39.84 82.73 39.738 c h
82.219 39.738 m f
84.867 43.91 m 85.07 43.809 85.375 43.707 85.273 43.402 c 84.969 42.691
 l 83.34 42.691 l 83.137 43.199 l 82.934 43.809 83.137 43.91 83.441 43.91
 c 82.32 43.91 l 82.629 43.91 82.832 43.707 83.035 43.199 c 84.152 40.246
 l 84.051 39.941 83.949 39.738 83.645 39.738 c 84.766 39.738 l 86.086 43.402
 l 86.188 43.707 86.289 43.91 86.699 43.91 c 86.699 43.91 84.867 43.91 84.867
 43.91 c h
84.969 42.59 m 84.152 40.348 l 83.34 42.59 l h
84.969 42.59 m f
86.801 44.012 m 84.867 44.012 l 84.867 43.91 l 85.07 43.91 85.172 43.809
 85.172 43.707 c 85.172 43.605 85.172 43.605 85.172 43.504 c 84.867 42.793
 l 83.238 42.793 l 83.035 43.301 l 82.934 43.504 82.934 43.707 83.035 43.809
 c 83.035 43.91 83.137 43.91 83.34 43.91 c 83.34 44.012 l 82.117 44.012 
l 82.117 43.91 l 82.32 43.91 82.527 43.809 82.73 43.199 c 83.848 40.348 
l 83.746 40.043 83.645 39.941 83.441 39.941 c 83.34 39.941 l 83.34 39.738
 l 84.562 39.738 l 85.883 43.402 l 85.984 43.707 86.086 43.809 86.391 43.809
 c 86.391 44.012 l h
85.172 43.91 m 86.391 43.91 l 86.188 43.809 86.188 43.707 86.086 43.504
 c 84.766 39.84 l 83.949 39.84 l 84.051 39.941 84.152 40.043 84.254 40.246
 c 85.375 43.402 l 85.375 43.504 85.375 43.605 85.375 43.707 c 85.273 43.809
 85.273 43.809 85.172 43.91 c h
82.629 43.91 m 83.137 43.91 l 83.035 43.809 l 82.934 43.707 82.934 43.605
 83.035 43.402 c 82.934 43.605 82.73 43.809 82.629 43.91 c h
83.441 42.488 m 84.867 42.488 l 84.152 40.453 l h
83.441 42.488 m f
87.41 43.91 m 87.715 43.809 87.918 43.707 87.918 43.402 c 87.918 39.84 
l 87.512 39.84 l 87.309 39.84 87.207 40.043 87.004 40.348 c 86.492 41.164
 l 86.699 39.84 l 90.055 39.84 l 90.258 41.164 l 89.648 40.348 l 89.445 
40.043 89.344 39.84 89.141 39.84 c 88.633 39.84 l 88.633 43.402 l 88.633
 43.809 88.836 43.91 89.141 43.91 c h
87.41 43.91 m f
89.242 44.012 m 87.41 44.012 l 87.41 43.91 l 87.715 43.91 87.816 43.809
 87.816 43.504 c 87.816 39.84 l 87.41 39.84 l 87.207 39.84 87.105 40.043
 87.004 40.246 c 86.492 41.062 l 86.391 41.062 l 86.598 39.637 l 90.055 
39.637 l 90.258 41.062 l 90.156 41.062 l 89.547 40.145 l 89.445 39.941 89.344
 39.738 89.141 39.738 c 88.734 39.738 l 88.734 43.301 l 88.734 43.605 88.938
 43.707 89.141 43.707 c 89.141 44.012 l h
87.715 43.91 m 88.836 43.91 l 88.734 43.809 88.633 43.707 88.633 43.402
 c 88.633 39.84 l 88.02 39.84 l 88.02 43.402 l 88.02 43.707 87.918 43.809
 87.715 43.91 c h
86.699 39.738 m 86.492 40.859 l 86.902 40.145 l 87.004 39.941 87.105 39.738
 87.309 39.738 c 87.309 39.738 86.699 39.738 86.699 39.738 c h
89.242 39.738 m 89.445 39.84 89.445 39.941 89.648 40.145 c 90.156 40.859
 l 89.953 39.738 l 89.953 39.738 89.242 39.738 89.242 39.738 c h
89.242 39.738 m f
94.637 41.875 m 94.637 43.199 93.82 44.012 92.703 44.012 c 91.582 44.012
 90.77 43.199 90.77 41.875 c 90.77 40.555 91.582 39.738 92.703 39.738 c 
93.719 39.637 94.637 40.453 94.637 41.875 c h
91.48 41.875 m 91.48 43.402 91.887 43.91 92.602 43.91 c 93.312 43.91 93.719
 43.301 93.719 41.875 c 93.719 40.348 93.312 39.84 92.602 39.84 c 91.887
 39.84 91.48 40.348 91.48 41.875 c h
91.48 41.875 m f
92.602 44.012 m 91.379 44.012 90.566 43.098 90.566 41.773 c 90.566 40.453
 91.379 39.535 92.602 39.535 c 93.82 39.535 94.637 40.453 94.637 41.773 
c 94.637 43.098 93.82 44.012 92.602 44.012 c h
93.008 39.738 m 93.516 39.941 93.82 40.656 93.82 41.773 c 93.82 42.895 
93.516 43.707 93.008 43.809 c 93.922 43.707 94.531 42.895 94.531 41.773 
c 94.531 40.656 93.922 39.941 93.008 39.738 c h
92.293 39.738 m 91.379 39.84 90.77 40.656 90.77 41.773 c 90.77 42.895 91.379
 43.707 92.293 43.809 c 91.785 43.605 91.48 42.895 91.48 41.773 c 91.48 
40.656 91.785 39.941 92.293 39.738 c h
92.602 39.84 m 91.887 39.84 91.48 40.555 91.48 41.875 c 91.48 43.199 91.887
 43.91 92.602 43.91 c 93.312 43.91 93.617 43.199 93.617 41.875 c 93.617 
40.555 93.312 39.84 92.602 39.84 c h
92.602 39.84 m f
95.246 43.91 m 95.551 43.809 95.754 43.707 95.754 43.402 c 95.754 40.246
 l 95.754 39.84 95.551 39.738 95.246 39.738 c 97.281 39.738 l 98.195 39.738
 98.91 40.145 98.91 40.859 c 98.91 41.57 98.297 41.977 97.383 41.977 c 97.078
 41.977 l 97.891 42.18 l 98.707 43.504 l 98.809 43.707 99.012 43.91 99.316
 44.012 c 98.094 44.012 l 96.977 41.977 l 96.465 41.977 l 96.465 43.504 
l 96.465 43.91 96.672 44.012 96.875 44.012 c 95.246 44.012 l h
96.465 39.84 m 96.465 41.875 l 97.18 41.875 l 97.789 41.875 98.195 41.57
 98.195 40.859 c 98.195 40.145 97.789 39.84 97.18 39.84 c h
96.465 39.84 m f
99.316 44.012 m 97.992 44.012 l 96.875 41.977 l 96.465 41.977 l 96.465 
43.402 l 96.465 43.707 96.672 43.809 96.875 43.809 c 96.875 43.91 l 95.043
 43.91 l 95.043 43.809 l 95.348 43.809 95.449 43.707 95.449 43.402 c 95.449
 40.246 l 95.449 39.941 95.246 39.84 95.043 39.84 c 95.043 39.738 l 97.18
 39.738 l 98.195 39.738 98.809 40.145 98.809 40.859 c 98.809 41.469 98.195
 41.977 97.383 41.977 c 97.789 42.078 l 98.602 43.402 l 98.809 43.707 98.91
 43.809 99.215 43.809 c 99.215 44.012 l h
98.094 43.91 m 99.012 43.91 l 98.809 43.809 98.707 43.707 98.602 43.504
 c 97.789 42.18 l 96.977 41.977 l h
95.551 43.91 m 96.672 43.91 l 96.566 43.809 96.465 43.707 96.465 43.402
 c 96.465 39.84 l 95.551 39.84 l 95.652 39.941 95.754 40.043 95.754 40.348
 c 95.754 43.504 l 95.754 43.707 95.652 43.809 95.551 43.91 c h
97.383 39.84 m 97.891 39.941 98.094 40.246 98.094 40.859 c 98.094 41.469
 97.789 41.773 97.383 41.875 c 98.195 41.875 98.809 41.469 98.809 40.859
 c 98.809 40.246 98.297 39.84 97.383 39.84 c h
96.465 41.773 m 97.078 41.773 l 97.688 41.773 97.992 41.469 97.992 40.859
 c 97.992 40.043 97.484 39.941 97.078 39.941 c 96.465 39.941 l h
96.465 41.773 m f
99.621 43.91 m 99.926 43.809 100.129 43.707 100.129 43.402 c 100.129 40.246
 l 100.129 39.84 99.926 39.738 99.621 39.738 c 101.352 39.738 l 101.047 
39.738 100.844 39.84 100.844 40.246 c 100.844 43.402 l 100.844 43.809 101.047
 43.91 101.352 43.91 c h
99.621 43.91 m f
101.352 44.012 m 99.52 44.012 l 99.52 43.91 l 99.824 43.91 99.926 43.809
 99.926 43.504 c 99.926 40.348 l 99.926 40.043 99.723 39.941 99.52 39.941
 c 99.52 39.84 l 101.352 39.84 l 101.047 39.84 100.945 39.941 100.945 40.246
 c 100.945 43.402 l 100.945 43.707 101.148 43.809 101.352 43.809 c h
99.926 43.91 m 101.047 43.91 l 100.945 43.809 100.844 43.707 100.844 43.402
 c 100.844 40.246 l 100.844 39.941 100.945 39.84 101.047 39.738 c 99.926
 39.738 l 100.027 39.84 100.129 39.941 100.129 40.246 c 100.129 43.402 l
 100.129 43.707 100.027 43.809 99.926 43.91 c h
99.926 43.91 m f
105.828 41.875 m 105.828 43.199 105.016 44.012 103.895 44.012 c 102.777
 44.012 101.961 43.199 101.961 41.875 c 101.961 40.555 102.777 39.738 103.895
 39.738 c 105.016 39.738 105.828 40.453 105.828 41.875 c h
102.777 41.875 m 102.777 43.402 103.184 43.91 103.895 43.91 c 104.605 43.91
 105.016 43.301 105.016 41.875 c 105.016 40.348 104.605 39.84 103.895 39.84
 c 103.184 39.84 102.777 40.348 102.777 41.875 c h
102.777 41.875 m f
103.895 44.012 m 102.676 44.012 101.859 43.098 101.859 41.773 c 101.859
 40.453 102.676 39.535 103.895 39.535 c 105.117 39.535 105.93 40.453 105.93
 41.773 c 105.93 43.098 105.117 44.012 103.895 44.012 c h
104.199 39.738 m 104.711 39.941 105.016 40.656 105.016 41.773 c 105.016
 42.895 104.711 43.707 104.199 43.809 c 105.117 43.707 105.727 42.895 105.727
 41.773 c 105.727 40.656 105.117 39.941 104.199 39.738 c h
103.59 39.738 m 102.676 39.84 102.062 40.656 102.062 41.773 c 102.062 42.895
 102.676 43.707 103.59 43.809 c 103.082 43.605 102.777 42.895 102.777 41.773
 c 102.777 40.656 102.98 39.941 103.59 39.738 c h
103.895 39.84 m 103.184 39.84 102.777 40.555 102.777 41.875 c 102.777 43.199
 103.184 43.91 103.895 43.91 c 104.605 43.91 104.914 43.199 104.914 41.875
 c 104.914 40.555 104.605 39.84 103.895 39.84 c h
103.895 39.84 m f
108.371 42.078 m 109.188 43.504 109.594 43.91 110.406 43.91 c 111.121 43.91
 111.426 43.402 111.426 42.793 c 111.426 42.281 111.121 41.875 110.508 41.773
 c 109.594 41.469 l 108.781 41.266 108.371 40.758 108.371 40.043 c 108.371
 39.129 109.289 38.621 110.203 38.621 c 110.918 38.621 111.527 38.723 112.035
 38.926 c 111.934 40.246 l 111.324 39.027 111.02 38.723 110.305 38.723 c
 109.594 38.723 109.188 39.027 109.188 39.637 c 109.188 40.043 109.391 40.453
 110.102 40.656 c 111.02 40.961 l 111.934 41.164 112.34 41.773 112.34 42.488
 c 112.34 43.402 111.527 44.113 110.508 44.113 c 109.695 44.113 109.086 
43.91 108.371 43.504 c h
108.371 42.078 m f
110.406 44.012 m 109.695 44.012 108.984 43.809 108.27 43.402 c 108.371 
41.977 l 108.473 41.977 l 109.289 43.402 109.695 43.809 110.406 43.809 c
 111.121 43.809 111.426 43.301 111.426 42.793 c 111.426 42.281 111.121 41.977
 110.508 41.773 c 109.594 41.469 l 108.781 41.266 108.27 40.656 108.27 39.941
 c 108.27 39.027 109.188 38.52 110.102 38.52 c 110.816 38.52 111.426 38.621
 111.934 38.824 c 111.73 40.246 l 111.629 40.246 l 111.02 39.027 110.711
 38.723 110 38.723 c 109.391 38.723 108.984 39.027 108.984 39.535 c 108.984
 40.043 109.289 40.348 109.797 40.453 c 110.711 40.758 l 111.629 41.062 
112.137 41.57 112.137 42.281 c 112.34 43.301 111.527 44.012 110.406 44.012
 c h
108.371 43.402 m 108.984 43.707 109.594 43.91 110.203 43.91 c 109.492 43.809
 109.086 43.402 108.371 42.18 c h
109.898 38.723 m 109.188 38.824 108.473 39.332 108.473 40.043 c 108.473
 40.656 108.883 41.164 109.695 41.469 c 110.609 41.773 l 111.223 41.977 
111.629 42.281 111.629 42.895 c 111.629 43.402 111.426 43.91 110.711 44.012
 c 111.629 43.91 112.238 43.301 112.238 42.383 c 112.238 41.672 111.832 
41.164 110.918 40.961 c 110 40.656 l 109.391 40.453 109.086 40.145 109.086
 39.637 c 109.086 39.129 109.391 38.824 109.898 38.723 c h
110.406 38.621 m 111.02 38.723 111.324 39.027 111.832 40.145 c 111.934 
38.926 l 111.426 38.824 110.918 38.723 110.406 38.621 c h
110.406 38.621 m f
113.969 43.91 m 114.273 43.809 114.477 43.707 114.477 43.402 c 114.477 
39.84 l 114.07 39.84 l 113.867 39.84 113.766 40.043 113.562 40.348 c 113.055
 41.164 l 113.258 39.84 l 116.613 39.84 l 116.82 41.164 l 116.309 40.348
 l 116.105 40.043 116.004 39.84 115.801 39.84 c 115.395 39.84 l 115.395 
43.402 l 115.395 43.809 115.598 43.91 115.902 43.91 c h
113.969 43.91 m f
115.699 44.012 m 113.867 44.012 l 113.867 43.91 l 114.172 43.91 114.273
 43.809 114.273 43.504 c 114.273 39.84 l 114.07 39.84 l 113.867 39.84 113.766
 40.043 113.664 40.246 c 113.156 41.062 l 113.055 41.062 l 113.258 39.637
 l 116.715 39.637 l 116.922 41.062 l 116.82 41.062 l 116.207 40.145 l 116.004
 39.941 116.004 39.738 115.801 39.738 c 115.395 39.738 l 115.395 43.301 
l 115.395 43.605 115.598 43.707 115.801 43.707 c 115.801 44.012 l h
114.273 43.91 m 115.395 43.91 l 115.293 43.809 115.191 43.707 115.191 43.402
 c 115.191 39.84 l 114.578 39.84 l 114.578 43.402 l 114.477 43.707 114.375
 43.809 114.273 43.91 c h
115.699 39.738 m 115.902 39.84 115.902 39.941 116.105 40.145 c 116.613 
40.859 l 116.41 39.738 l 116.41 39.738 115.699 39.738 115.699 39.738 c h
113.156 39.738 m 113.055 40.859 l 113.461 40.145 l 113.562 39.941 113.664
 39.738 113.867 39.738 c 113.867 39.738 113.156 39.738 113.156 39.738 c 
h
113.156 39.738 m f
118.957 43.91 m 119.16 43.809 119.465 43.707 119.363 43.402 c 119.059 42.691
 l 117.43 42.691 l 117.227 43.199 l 117.023 43.809 117.227 43.91 117.531
 43.91 c 116.41 43.91 l 116.715 43.91 116.922 43.707 117.125 43.199 c 118.242
 40.246 l 118.141 39.941 118.039 39.738 117.734 39.738 c 118.855 39.738 
l 120.176 43.402 l 120.277 43.707 120.379 43.91 120.785 43.91 c 120.785 
43.91 118.957 43.91 118.957 43.91 c h
119.059 42.59 m 118.242 40.348 l 117.43 42.59 l h
119.059 42.59 m f
120.785 44.012 m 118.855 44.012 l 118.855 43.91 l 119.059 43.91 119.16 
43.809 119.16 43.707 c 119.16 43.605 119.16 43.605 119.16 43.504 c 118.855
 42.793 l 117.227 42.793 l 117.023 43.301 l 116.922 43.504 116.922 43.707
 117.023 43.809 c 117.023 43.91 117.125 43.91 117.328 43.91 c 117.328 44.012
 l 116.105 44.012 l 116.105 43.91 l 116.309 43.91 116.512 43.809 116.715
 43.199 c 117.836 40.348 l 117.734 40.043 117.633 39.941 117.43 39.941 c
 117.328 39.941 l 117.328 39.738 l 118.547 39.738 l 119.871 43.402 l 119.973
 43.707 120.074 43.809 120.379 43.809 c 120.379 44.012 l h
119.16 43.91 m 120.379 43.91 l 120.176 43.809 120.176 43.707 120.074 43.504
 c 118.75 39.84 l 117.938 39.84 l 118.039 39.941 118.141 40.043 118.242 
40.246 c 119.363 43.402 l 119.363 43.504 119.363 43.605 119.363 43.707 c
 119.363 43.809 119.262 43.809 119.16 43.91 c h
116.715 43.91 m 117.227 43.91 l 117.125 43.809 l 117.023 43.707 117.023
 43.605 117.125 43.402 c 116.922 43.605 116.82 43.809 116.715 43.91 c h
117.531 42.488 m 118.957 42.488 l 118.242 40.453 l h
117.531 42.488 m f
121.5 43.91 m 121.805 43.809 122.008 43.707 122.008 43.402 c 122.008 39.84
 l 121.602 39.84 l 121.398 39.84 121.297 40.043 121.094 40.348 c 120.582
 41.164 l 120.785 39.84 l 124.145 39.84 l 124.348 41.164 l 123.84 40.348
 l 123.637 40.043 123.535 39.84 123.332 39.84 c 122.926 39.84 l 122.926 
43.402 l 122.926 43.809 123.129 43.91 123.434 43.91 c h
121.5 43.91 m f
123.23 44.012 m 121.398 44.012 l 121.398 43.91 l 121.703 43.91 121.805 
43.809 121.805 43.504 c 121.805 39.84 l 121.398 39.84 l 121.195 39.84 121.094
 40.043 120.992 40.246 c 120.48 41.062 l 120.379 41.062 l 120.582 39.637
 l 124.043 39.637 l 124.246 41.062 l 124.145 41.062 l 123.535 40.145 l 123.332
 39.941 123.332 39.738 123.129 39.738 c 122.719 39.738 l 122.719 43.301 
l 122.719 43.605 122.926 43.707 123.129 43.707 c 123.129 44.012 l h
121.805 43.91 m 122.926 43.91 l 122.82 43.809 122.719 43.707 122.719 43.402
 c 122.719 39.84 l 122.109 39.84 l 122.109 43.402 l 122.008 43.707 121.906
 43.809 121.805 43.91 c h
123.23 39.738 m 123.434 39.84 123.434 39.941 123.637 40.145 c 124.145 40.859
 l 123.941 39.738 l 123.941 39.738 123.23 39.738 123.23 39.738 c h
120.684 39.738 m 120.48 40.859 l 120.891 40.145 l 120.992 39.941 121.094
 39.738 121.297 39.738 c 121.297 39.738 120.684 39.738 120.684 39.738 c 
h
120.684 39.738 m f
126.484 43.91 m 126.688 43.809 126.996 43.707 126.895 43.402 c 126.586 
42.691 l 124.961 42.691 l 124.754 43.199 l 124.551 43.809 124.754 43.91 
125.062 43.91 c 123.941 43.91 l 124.246 43.91 124.449 43.707 124.652 43.199
 c 125.773 40.246 l 125.672 39.941 125.57 39.738 125.266 39.738 c 126.383
 39.738 l 127.707 43.402 l 127.809 43.707 127.91 43.91 128.316 43.91 c 128.316
 43.91 126.484 43.91 126.484 43.91 c h
126.586 42.59 m 125.773 40.348 l 124.961 42.59 l h
126.586 42.59 m f
128.316 44.012 m 126.383 44.012 l 126.383 43.91 l 126.586 43.91 126.688
 43.809 126.688 43.707 c 126.688 43.605 126.688 43.605 126.688 43.504 c 
126.383 42.793 l 124.754 42.793 l 124.551 43.301 l 124.449 43.504 124.449
 43.707 124.551 43.809 c 124.551 43.91 124.652 43.91 124.859 43.91 c 124.859
 44.012 l 123.637 44.012 l 123.637 43.91 l 123.84 43.91 124.043 43.809 124.246
 43.199 c 125.367 40.348 l 125.266 40.043 125.164 39.941 124.961 39.941 
c 125.266 39.941 l 125.266 39.738 l 126.484 39.738 l 127.809 43.402 l 127.91
 43.707 128.012 43.809 128.316 43.809 c h
126.789 43.91 m 128.012 43.91 l 127.809 43.809 127.809 43.707 127.707 43.504
 c 126.383 39.84 l 125.57 39.84 l 125.672 39.941 125.773 40.043 125.875 
40.246 c 126.996 43.402 l 126.996 43.504 126.996 43.605 126.996 43.707 c
 126.895 43.809 126.789 43.809 126.789 43.91 c h
124.246 43.91 m 124.754 43.91 l 124.652 43.809 l 124.551 43.707 124.551
 43.605 124.652 43.402 c 124.449 43.605 124.348 43.809 124.246 43.91 c h
125.062 42.488 m 126.484 42.488 l 125.773 40.453 l h
125.062 42.488 m f
131.27 43.402 m 131.879 42.488 l 131.676 44.012 l 128.621 44.012 l 128.93
 44.012 129.133 43.91 129.133 43.504 c 129.133 40.348 l 129.133 39.941 128.93
 39.84 128.621 39.84 c 130.352 39.84 l 130.047 39.84 129.844 39.941 129.844
 40.348 c 129.844 43.91 l 130.555 43.91 l 130.859 43.809 131.066 43.707 
131.27 43.402 c h
131.27 43.402 m f
131.676 44.012 m 128.52 44.012 l 128.52 43.91 l 128.824 43.91 128.93 43.809
 128.93 43.504 c 128.93 40.348 l 128.93 40.043 128.723 39.941 128.52 39.941
 c 128.52 39.84 l 130.352 39.84 l 130.047 39.84 129.945 39.941 129.945 40.246
 c 129.945 43.809 l 130.656 43.809 l 130.859 43.809 131.066 43.707 131.27
 43.301 c 131.879 42.383 l 131.98 42.383 l h
130.758 43.91 m 131.574 43.91 l 131.777 42.59 l 131.27 43.402 l 131.168
 43.605 130.965 43.809 130.758 43.91 c h
128.93 43.91 m 129.844 43.91 l 129.844 40.348 l 129.844 40.043 129.945 
39.941 130.047 39.84 c 128.93 39.84 l 129.031 39.941 129.133 40.043 129.133
 40.348 c 129.133 43.504 l 129.133 43.707 129.031 43.809 128.93 43.91 c 
h
128.93 43.91 m f
135.238 43.402 m 135.746 42.691 l 135.543 44.012 l 132.387 44.012 l 132.691
 44.012 132.895 43.91 132.895 43.504 c 132.895 40.348 l 132.895 39.941 132.691
 39.84 132.387 39.84 c 135.543 39.84 l 135.746 41.062 l 135.238 40.453 l
 135.035 40.145 134.828 39.941 134.523 39.941 c 133.609 39.941 l 133.609
 41.773 l 134.219 41.773 l 134.727 41.773 134.934 41.469 134.934 41.062 
c 134.934 42.59 l 134.828 42.18 134.727 41.875 134.219 41.875 c 133.609 
41.875 l 133.609 44.012 l 134.625 44.012 l 134.934 43.809 135.035 43.605
 135.238 43.402 c h
135.238 43.402 m f
135.645 44.012 m 132.285 44.012 l 132.285 43.91 l 132.59 43.91 132.691 
43.809 132.691 43.504 c 132.691 40.348 l 132.691 40.043 132.488 39.941 132.285
 39.941 c 132.285 39.84 l 135.543 39.84 l 135.746 41.164 l 135.645 41.164
 l 135.035 40.453 l 134.828 40.246 134.727 40.043 134.422 40.043 c 133.609
 40.043 l 133.609 41.773 l 134.219 41.773 l 134.727 41.773 134.828 41.57
 134.93 41.164 c 135.035 41.164 l 135.035 42.793 l 134.93 42.793 l 134.828
 42.383 134.727 42.078 134.219 42.078 c 133.609 42.078 l 133.609 44.113 
l 134.523 44.113 l 134.828 44.113 134.93 43.91 135.137 43.605 c 135.746 
42.895 l 135.848 42.895 l h
134.828 43.91 m 135.645 43.91 l 135.848 42.793 l 135.34 43.402 l 135.137
 43.605 135.035 43.809 134.828 43.91 c h
132.691 43.91 m 133.609 43.91 l 133.609 39.84 l 132.691 39.84 l 132.793
 39.941 132.895 40.043 132.895 40.348 c 132.895 43.504 l 132.895 43.707 
132.793 43.809 132.691 43.91 c h
134.422 41.672 m 134.727 41.672 134.828 41.875 134.934 42.078 c 134.934
 41.164 l 134.934 41.469 134.727 41.672 134.422 41.672 c h
134.625 39.738 m 134.828 39.84 134.934 39.941 135.137 40.145 c 135.238 
40.246 l 135.645 40.758 l 135.441 39.738 l h
134.625 39.738 m f
138.086 39.738 m 140.02 39.738 l 141.344 39.738 142.258 40.555 142.258 
41.875 c 142.258 43.199 141.344 44.012 140.02 44.012 c 138.086 44.012 l 
138.391 44.012 138.594 43.91 138.594 43.504 c 138.594 40.348 l 138.594 39.941
 138.391 39.84 138.086 39.738 c h
139.309 39.84 m 139.309 43.91 l 139.918 43.91 l 140.832 43.91 141.445 43.301
 141.445 41.875 c 141.445 40.453 140.832 39.84 139.918 39.84 c h
139.309 39.84 m f
139.918 44.012 m 137.984 44.012 l 137.984 43.91 l 138.289 43.91 138.391
 43.809 138.391 43.504 c 138.391 40.348 l 138.391 40.043 138.188 39.941 
137.984 39.941 c 137.984 39.84 l 139.918 39.84 l 141.344 39.84 142.258 40.656
 142.258 41.977 c 142.258 43.098 141.344 44.012 139.918 44.012 c h
138.391 43.91 m 139.309 43.91 l 139.309 39.84 l 138.391 39.84 l 138.492
 39.941 138.594 40.043 138.594 40.348 c 138.594 43.504 l 138.594 43.707 
138.492 43.809 138.391 43.91 c h
140.324 39.84 m 141.242 40.043 141.445 41.062 141.445 41.875 c 141.445 
42.691 141.242 43.707 140.324 43.91 c 141.445 43.809 142.156 42.996 142.156
 41.875 c 142.156 40.758 141.445 39.941 140.324 39.84 c h
139.309 43.809 m 139.918 43.809 l 140.832 43.809 141.344 43.199 141.344
 41.875 c 141.344 40.555 140.832 39.941 139.918 39.941 c 139.309 39.941 
l h
139.309 43.809 m f
142.867 43.91 m 143.176 43.809 143.379 43.707 143.379 43.402 c 143.379 
40.246 l 143.379 39.84 143.176 39.738 142.867 39.738 c 144.598 39.738 l 
144.293 39.738 144.09 39.84 144.09 40.246 c 144.09 43.402 l 144.09 43.809
 144.293 43.91 144.598 43.91 c h
142.867 43.91 m f
144.598 44.012 m 142.766 44.012 l 142.766 43.91 l 143.074 43.91 143.176
 43.809 143.176 43.504 c 143.176 40.348 l 143.176 40.043 142.969 39.941 
142.766 39.941 c 142.766 39.84 l 144.598 39.84 l 144.293 39.84 144.191 39.941
 144.191 40.246 c 144.191 43.402 l 144.191 43.707 144.395 43.809 144.598
 43.809 c h
143.176 43.91 m 144.293 43.91 l 144.191 43.809 144.09 43.707 144.09 43.402
 c 144.09 40.246 l 144.09 39.941 144.191 39.84 144.293 39.738 c 143.176 
39.738 l 143.277 39.84 143.379 39.941 143.379 40.246 c 143.379 43.402 l 
143.379 43.707 143.277 43.809 143.176 43.91 c h
143.176 43.91 m f
149.586 44.012 m 147.652 39.434 l 147.348 42.895 l 147.246 43.605 147.551
 43.809 147.957 43.91 c 146.633 43.91 l 147.043 43.91 147.246 43.707 147.246
 42.895 c 147.551 39.23 l 147.551 39.129 l 147.449 38.824 147.246 38.723
 147.043 38.723 c 148.465 38.723 l 149.992 42.691 l 151.418 38.723 l 152.84
 38.723 l 152.434 38.723 152.23 38.926 152.23 39.332 c 152.535 43.301 l 
152.535 43.707 152.738 43.91 153.148 43.91 c 151.008 43.91 l 151.418 43.91
 151.621 43.707 151.621 43.301 c 151.316 39.23 l h
149.586 44.012 m f
149.586 44.012 m 149.484 44.012 l 147.652 39.637 l 147.449 42.895 l 147.348
 43.707 147.754 43.809 148.059 43.809 c 148.059 43.91 l 146.633 43.91 l 
146.633 43.809 l 146.938 43.809 147.145 43.605 147.246 42.895 c 147.551 
39.23 l 147.551 39.129 l 147.449 38.824 147.246 38.723 147.043 38.723 c 
147.043 38.621 l 148.566 38.621 l 150.094 42.488 l 151.418 38.621 l 152.941
 38.621 l 152.941 38.824 l 152.535 38.824 152.332 39.027 152.332 39.332 
c 152.637 43.301 l 152.637 43.707 152.84 43.809 153.25 43.91 c 153.25 44.012
 l 151.008 44.012 l 151.008 43.91 l 151.418 43.91 151.621 43.707 151.621
 43.402 c 151.316 39.637 l h
147.652 39.23 m 149.586 43.91 l 149.992 42.793 l 148.363 38.824 l 147.246
 38.824 l 147.348 38.824 147.551 38.926 147.652 39.23 c h
151.316 43.91 m 152.84 43.91 l 152.637 43.809 152.535 43.707 152.434 43.301
 c 152.129 39.332 l 152.129 38.926 152.23 38.824 152.434 38.723 c 151.316
 38.723 l 151.215 38.926 l 151.52 43.199 l 151.723 43.605 151.52 43.809 
151.316 43.91 c h
146.938 43.91 m 147.754 43.91 l 147.449 43.809 147.348 43.504 147.348 43.098
 c 147.246 43.504 147.145 43.707 146.938 43.91 c h
146.938 43.91 m f
156.504 39.738 m 157.523 39.738 l 157.219 39.738 157.012 39.941 157.012
 40.453 c 157.012 42.383 l 157.012 43.504 156.402 43.91 155.59 43.91 c 154.773
 43.91 154.062 43.504 154.062 42.488 c 154.062 40.145 l 154.062 39.738 153.859
 39.637 153.555 39.637 c 155.285 39.637 l 154.977 39.637 154.773 39.738 
154.773 40.145 c 154.773 42.488 l 154.773 43.199 155.184 43.605 155.895 
43.605 c 156.504 43.605 157.012 43.199 157.012 42.281 c 157.012 40.348 l
 157.012 39.941 156.809 39.84 156.504 39.738 c h
156.504 39.738 m f
155.691 44.012 m 154.875 44.012 154.062 43.605 154.062 42.59 c 154.062 
40.246 l 154.062 39.941 153.961 39.84 153.656 39.84 c 153.656 39.738 l 155.488
 39.738 l 155.488 39.84 l 155.184 39.84 155.078 39.941 155.078 40.246 c 
155.078 42.59 l 155.078 43.301 155.488 43.707 156.098 43.707 c 156.707 43.707
 157.117 43.199 157.117 42.383 c 157.117 40.453 l 157.117 39.941 156.91 
39.84 156.707 39.738 c 156.707 39.637 l 157.828 39.637 l 157.828 39.84 l
 157.523 39.84 157.422 39.941 157.422 40.555 c 157.422 42.488 l 157.117 
43.402 156.605 44.012 155.691 44.012 c h
153.961 39.738 m 154.062 39.84 154.164 39.941 154.164 40.246 c 154.164 
42.59 l 154.164 43.605 154.977 43.91 155.691 43.91 c 155.996 43.91 156.199
 43.809 156.402 43.707 c 156.301 43.809 156.098 43.809 155.895 43.809 c 
155.184 43.809 154.773 43.301 154.773 42.59 c 154.773 40.246 l 154.773 39.941
 154.875 39.84 154.977 39.738 c 154.977 39.738 153.961 39.738 153.961 39.738
 c h
156.809 39.738 m 156.91 39.84 157.012 39.941 157.012 40.246 c 157.012 39.941
 157.117 39.84 157.32 39.738 c h
156.809 39.738 m f
158.234 42.383 m 158.945 43.504 159.254 43.809 159.863 43.809 c 160.473
 43.809 160.676 43.402 160.676 42.895 c 160.676 42.488 160.473 42.18 159.965
 42.078 c 159.254 41.875 l 158.641 41.672 158.234 41.266 158.234 40.758 
c 158.234 40.043 158.945 39.637 159.66 39.637 c 160.27 39.637 160.676 39.738
 161.082 39.941 c 160.98 41.062 l 160.473 40.043 160.27 39.84 159.66 39.84
 c 159.152 39.84 158.742 40.145 158.742 40.555 c 158.742 40.961 158.945 
41.164 159.457 41.367 c 160.168 41.57 l 160.879 41.773 161.289 42.18 161.289
 42.793 c 161.289 43.504 160.676 44.113 159.863 44.113 c 159.254 44.113 
158.742 43.91 158.133 43.707 c h
158.234 42.383 m f
159.965 44.012 m 159.355 44.012 158.844 43.91 158.234 43.605 c 158.336 
42.383 l 158.438 42.383 l 159.047 43.504 159.355 43.809 159.965 43.809 c
 160.574 43.809 160.777 43.402 160.777 42.996 c 160.777 42.59 160.574 42.281
 160.066 42.18 c 159.355 41.977 l 158.742 41.773 158.336 41.367 158.336 
40.758 c 158.336 39.941 159.047 39.535 159.863 39.535 c 160.371 39.535 160.879
 39.637 161.391 39.84 c 161.289 40.961 l 161.188 40.961 l 160.676 39.941
 160.473 39.738 159.965 39.738 c 159.457 39.738 159.152 39.941 159.152 40.348
 c 159.152 40.758 159.355 40.961 159.863 41.062 c 160.574 41.266 l 161.289
 41.469 161.695 41.875 161.695 42.488 c 161.391 43.504 160.777 44.012 159.965
 44.012 c h
158.234 43.504 m 158.641 43.707 159.047 43.91 159.457 43.91 c 159.047 43.809
 158.742 43.402 158.234 42.59 c h
159.152 39.84 m 158.641 39.941 158.234 40.348 158.234 40.859 c 158.234 
41.367 158.539 41.773 159.152 41.977 c 159.863 42.18 l 160.371 42.281 160.676
 42.59 160.676 43.098 c 160.676 43.402 160.574 43.809 160.168 43.91 c 160.777
 43.809 161.188 43.301 161.188 42.691 c 161.188 42.18 160.777 41.773 160.168
 41.57 c 159.457 41.367 l 158.945 41.266 158.742 40.961 158.742 40.555 c
 158.742 40.145 158.945 39.941 159.152 39.84 c h
160.066 39.738 m 160.473 39.84 160.676 40.145 161.082 40.859 c 161.188 
39.941 l 160.777 39.84 160.371 39.738 160.066 39.738 c h
160.066 39.738 m f
162 43.91 m 162.305 43.809 162.508 43.707 162.508 43.402 c 162.508 40.246
 l 162.508 39.84 162.305 39.738 162 39.738 c 163.73 39.738 l 163.426 39.738
 163.223 39.84 163.223 40.246 c 163.223 43.402 l 163.223 43.809 163.426 
43.91 163.73 43.91 c h
162 43.91 m f
163.73 44.012 m 161.898 44.012 l 161.898 43.91 l 162.203 43.91 162.305 
43.809 162.305 43.504 c 162.305 40.348 l 162.305 40.043 162.102 39.941 161.898
 39.941 c 161.898 39.84 l 163.73 39.84 l 163.426 39.84 163.324 39.941 163.324
 40.246 c 163.324 43.402 l 163.324 43.707 163.527 43.809 163.73 43.809 c
 h
162.305 43.91 m 163.426 43.91 l 163.324 43.809 163.223 43.707 163.223 43.402
 c 163.223 40.246 l 163.223 39.941 163.324 39.84 163.426 39.738 c 162.305
 39.738 l 162.406 39.84 162.508 39.941 162.508 40.246 c 162.508 43.402 l
 162.508 43.707 162.406 43.809 162.305 43.91 c h
162.305 43.91 m f
164.34 41.773 m 164.34 40.453 165.258 39.637 166.375 39.637 c 166.984 39.637
 167.496 39.84 167.801 40.043 c 167.496 41.062 l 167.086 40.043 166.984 
39.738 166.375 39.738 c 165.766 39.738 165.152 40.246 165.152 41.57 c 165.152
 42.793 165.867 43.402 166.578 43.402 c 167.086 43.402 167.598 43.199 167.902
 42.383 c 167.801 43.301 167.188 43.91 166.273 43.91 c 165.152 44.012 164.34
 43.098 164.34 41.773 c h
164.34 41.773 m f
166.273 44.012 m 165.051 44.012 164.238 43.098 164.238 41.773 c 164.238
 40.656 164.949 39.637 166.375 39.637 c 166.883 39.637 167.496 39.738 167.801
 40.043 c 167.496 41.164 l 167.395 41.164 l 166.984 40.145 166.883 39.84
 166.273 39.84 c 165.664 39.84 165.051 40.348 165.051 41.57 c 165.051 42.793
 165.766 43.301 166.375 43.301 c 166.984 43.301 167.395 42.996 167.598 42.281
 c 167.699 42.281 l 167.801 43.402 167.188 44.012 166.273 44.012 c h
166.07 39.738 m 165.258 39.84 164.441 40.555 164.441 41.773 c 164.441 42.996
 165.258 43.91 166.375 43.91 c 167.086 43.91 167.699 43.504 167.902 42.793
 c 167.699 43.301 167.293 43.504 166.68 43.504 c 165.969 43.504 165.258 
42.895 165.258 41.57 c 165.051 40.555 165.562 39.941 166.07 39.738 c h
166.68 39.738 m 167.086 39.84 167.188 40.246 167.496 40.961 c 167.699 40.043
 l 167.496 39.941 167.086 39.738 166.68 39.738 c h
166.68 39.738 m f
170.547 43.91 m 170.75 43.809 171.055 43.707 170.953 43.402 c 170.648 42.691
 l 169.02 42.691 l 168.816 43.199 l 168.613 43.809 168.816 43.91 169.121
 43.91 c 168.004 43.91 l 168.309 43.91 168.512 43.707 168.715 43.199 c 169.836
 40.246 l 169.734 39.941 169.633 39.738 169.328 39.738 c 170.445 39.738 
l 171.77 43.402 l 171.871 43.707 171.973 43.91 172.379 43.91 c 172.379 43.91
 170.547 43.91 170.547 43.91 c h
170.648 42.59 m 169.836 40.348 l 169.02 42.59 l h
170.648 42.59 m f
172.48 44.012 m 170.547 44.012 l 170.547 43.91 l 170.75 43.91 170.852 43.809
 170.852 43.707 c 170.852 43.605 170.852 43.605 170.852 43.504 c 170.547
 42.793 l 168.918 42.793 l 168.715 43.301 l 168.613 43.504 168.613 43.707
 168.715 43.809 c 168.715 43.91 168.816 43.91 169.02 43.91 c 169.02 44.012
 l 168.004 44.012 l 168.004 43.91 l 168.207 43.91 168.41 43.809 168.613 
43.199 c 169.734 40.348 l 169.633 40.043 169.531 39.941 169.328 39.941 c
 169.227 39.941 l 169.227 39.738 l 170.445 39.738 l 171.77 43.402 l 171.871
 43.707 171.973 43.809 172.277 43.809 c 172.277 44.012 l h
170.852 43.91 m 172.074 43.91 l 171.871 43.809 171.871 43.707 171.77 43.504
 c 170.445 39.84 l 169.633 39.84 l 169.734 39.941 169.836 40.043 169.938
 40.246 c 171.055 43.402 l 171.055 43.504 171.055 43.605 171.055 43.707 
c 170.953 43.809 170.953 43.809 170.852 43.91 c h
168.309 43.91 m 168.816 43.91 l 168.715 43.809 l 168.613 43.707 168.613
 43.605 168.715 43.402 c 168.613 43.605 168.512 43.809 168.309 43.91 c h
169.121 42.488 m 170.547 42.488 l 169.836 40.453 l h
169.121 42.488 m f
174.109 39.738 m 176.043 39.738 l 177.367 39.738 178.281 40.555 178.281
 41.875 c 178.281 43.199 177.367 44.012 176.043 44.012 c 174.109 44.012 
l 174.414 44.012 174.617 43.91 174.617 43.504 c 174.617 40.348 l 174.617
 39.941 174.414 39.84 174.109 39.738 c h
175.332 39.84 m 175.332 43.91 l 175.941 43.91 l 176.855 43.91 177.469 43.301
 177.469 41.875 c 177.469 40.453 176.855 39.84 175.941 39.84 c h
175.332 39.84 m f
175.941 44.012 m 174.008 44.012 l 174.008 43.91 l 174.312 43.91 174.414
 43.809 174.414 43.504 c 174.414 40.348 l 174.414 40.043 174.211 39.941 
174.008 39.941 c 174.008 39.84 l 175.941 39.84 l 177.367 39.84 178.281 40.656
 178.281 41.977 c 178.281 43.098 177.367 44.012 175.941 44.012 c h
174.414 43.91 m 175.332 43.91 l 175.332 39.84 l 174.414 39.84 l 174.516
 39.941 174.617 40.043 174.617 40.348 c 174.617 43.504 l 174.617 43.707 
174.516 43.809 174.414 43.91 c h
176.348 39.84 m 177.262 40.043 177.469 41.062 177.469 41.875 c 177.469 
42.691 177.262 43.707 176.348 43.91 c 177.469 43.809 178.18 42.996 178.18
 41.875 c 178.18 40.758 177.469 39.941 176.348 39.84 c h
175.332 43.809 m 175.941 43.809 l 176.855 43.809 177.367 43.199 177.367
 41.875 c 177.367 40.555 176.855 39.941 175.941 39.941 c 175.332 39.941 
l h
175.332 43.809 m f
178.891 43.91 m 179.195 43.809 179.402 43.707 179.402 43.402 c 179.402 
40.246 l 179.402 39.84 179.195 39.738 178.891 39.738 c 180.621 39.738 l 
180.316 39.738 180.113 39.84 180.113 40.246 c 180.113 43.402 l 180.113 43.809
 180.316 43.91 180.621 43.91 c h
178.891 43.91 m f
180.621 44.012 m 178.789 44.012 l 178.789 43.91 l 179.094 43.91 179.195
 43.809 179.195 43.504 c 179.195 40.348 l 179.195 40.043 178.992 39.941 
178.789 39.941 c 178.789 39.84 l 180.621 39.84 l 180.316 39.84 180.215 39.941
 180.215 40.246 c 180.215 43.402 l 180.215 43.707 180.418 43.809 180.621
 43.809 c h
179.094 43.91 m 180.215 43.91 l 180.113 43.809 180.012 43.707 180.012 43.402
 c 180.012 40.246 l 180.012 39.941 180.113 39.84 180.215 39.738 c 179.094
 39.738 l 179.195 39.84 179.297 39.941 179.297 40.246 c 179.297 43.402 l
 179.402 43.707 179.297 43.809 179.094 43.91 c h
179.094 43.91 m f
182.758 43.91 m 183.164 43.809 183.371 43.707 183.371 43.301 c 183.371 
39.332 l 183.371 38.926 183.164 38.723 182.758 38.723 c 185.301 38.723 l
 186.422 38.723 187.336 39.23 187.336 40.043 c 187.336 40.859 186.523 41.367
 185.406 41.367 c 185.098 41.367 l 186.117 41.57 l 187.031 43.199 l 187.234
 43.504 187.441 43.809 187.848 43.809 c 186.32 43.809 l 184.895 41.266 l
 184.285 41.266 l 184.285 43.098 l 184.285 43.504 184.488 43.707 184.895
 43.707 c 182.758 43.707 l h
184.285 38.824 m 184.285 41.367 l 185.098 41.367 l 185.812 41.367 186.32
 40.961 186.32 40.145 c 186.32 39.23 185.812 38.926 185.098 38.926 c 184.285
 38.926 l h
184.285 38.824 m f
187.848 44.012 m 186.32 44.012 l 184.895 41.469 l 184.387 41.469 l 184.387
 43.301 l 184.387 43.707 184.59 43.809 184.895 43.91 c 184.895 44.012 l 
182.656 44.012 l 182.656 43.91 l 182.961 43.91 183.266 43.809 183.266 43.301
 c 183.266 39.332 l 183.266 38.926 183.062 38.824 182.656 38.723 c 182.656
 38.621 l 185.301 38.621 l 186.523 38.621 187.336 39.23 187.336 40.043 c
 187.336 40.859 186.625 41.469 185.508 41.469 c 186.117 41.57 l 187.031 
43.199 l 187.234 43.605 187.441 43.707 187.746 43.809 c 187.746 44.012 l
 h
186.422 43.91 m 187.645 43.91 l 187.441 43.809 187.234 43.605 187.031 43.301
 c 186.117 41.672 l 185.098 41.469 l h
183.062 43.91 m 184.59 43.91 l 184.387 43.809 184.285 43.707 184.285 43.301
 c 184.285 38.824 l 183.062 38.824 l 183.266 38.926 183.371 39.027 183.371
 39.434 c 183.371 43.402 l 183.473 43.605 183.266 43.809 183.062 43.91 c
 h
185.301 41.367 m 185.406 41.367 l 186.523 41.367 187.234 40.859 187.234
 40.043 c 187.234 39.23 186.422 38.723 185.301 38.723 c 186.016 38.824 186.523
 39.23 186.523 40.043 c 186.523 40.859 186.117 41.266 185.301 41.367 c h
184.387 41.266 m 185.199 41.266 l 186.016 41.266 186.422 40.859 186.422
 40.043 c 186.422 39.027 185.812 38.824 185.199 38.824 c 184.387 38.824 
l h
184.387 41.266 m f
192.223 41.875 m 192.223 43.199 191.406 44.012 190.289 44.012 c 189.168
 44.012 188.355 43.199 188.355 41.875 c 188.355 40.555 189.168 39.738 190.289
 39.738 c 191.406 39.637 192.223 40.453 192.223 41.875 c h
189.168 41.875 m 189.168 43.402 189.578 43.91 190.289 43.91 c 191 43.91
 191.41 43.301 191.41 41.875 c 191.41 40.348 191 39.84 190.289 39.84 c 189.578
 39.738 189.168 40.348 189.168 41.875 c h
189.168 41.875 m f
190.289 44.012 m 189.066 44.012 188.254 43.098 188.254 41.773 c 188.254
 40.453 189.066 39.535 190.289 39.535 c 191.512 39.535 192.324 40.453 192.324
 41.773 c 192.324 43.098 191.512 44.012 190.289 44.012 c h
190.594 39.738 m 191.102 39.941 191.406 40.656 191.406 41.773 c 191.406
 42.895 191.102 43.707 190.594 43.809 c 191.512 43.707 192.121 42.895 192.121
 41.773 c 192.121 40.656 191.613 39.941 190.594 39.738 c h
189.984 39.738 m 189.066 39.84 188.457 40.656 188.457 41.773 c 188.457 
42.895 189.066 43.707 189.984 43.809 c 189.477 43.605 189.168 42.895 189.168
 41.773 c 189.168 40.656 189.371 39.941 189.984 39.738 c h
190.289 39.84 m 189.578 39.84 189.168 40.555 189.168 41.875 c 189.168 43.199
 189.578 43.91 190.289 43.91 c 191 43.91 191.305 43.199 191.305 41.875 c
 191.305 40.555 191 39.84 190.289 39.84 c h
190.289 39.84 m f
195.07 44.012 m 193.547 40.348 l 193.34 43.098 l 193.34 43.707 193.547 
43.91 193.852 43.91 c 192.73 43.91 l 193.035 43.91 193.137 43.707 193.238
 43.098 c 193.445 40.145 l 193.445 40.043 l 193.34 39.738 193.137 39.738
 193.035 39.738 c 194.156 39.738 l 195.375 42.895 l 196.496 39.738 l 197.617
 39.738 l 197.309 39.738 197.105 39.84 197.105 40.246 c 197.309 43.402 l
 197.309 43.809 197.516 43.91 197.82 43.91 c 196.09 43.91 l 196.395 43.91
 196.598 43.809 196.598 43.402 c 196.395 40.145 l h
195.07 44.012 m f
195.172 44.012 m 195.07 44.012 l 193.648 40.555 l 193.445 43.098 l 193.445
 43.707 193.648 43.809 193.852 43.809 c 193.852 43.91 l 192.629 43.91 l 
192.629 43.809 l 192.934 43.809 193.035 43.707 193.035 43.098 c 193.238 
40.145 l 193.137 39.941 193.035 39.84 192.832 39.84 c 192.832 39.738 l 194.055
 39.738 l 195.273 42.793 l 196.395 39.738 l 197.617 39.738 l 197.617 39.84
 l 197.309 39.84 197.105 40.043 197.207 40.246 c 197.41 43.402 l 197.41 
43.707 197.617 43.809 197.82 43.809 c 197.82 43.91 l 195.988 43.91 l 195.988
 43.809 l 196.293 43.809 196.496 43.605 196.395 43.402 c 196.191 40.453 
l h
193.547 40.145 m 195.07 43.809 l 195.375 42.895 l 194.055 39.738 l 193.238
 39.738 l 193.34 39.84 193.445 39.941 193.547 40.145 c h
196.496 43.91 m 197.617 43.91 l 197.516 43.809 197.41 43.707 197.41 43.402
 c 197.207 40.246 l 197.207 39.941 197.309 39.84 197.41 39.738 c 196.598
 39.738 l 196.496 39.941 l 196.699 43.402 l 196.801 43.707 196.699 43.809
 196.496 43.91 c h
193.035 43.91 m 193.547 43.91 l 193.34 43.809 193.238 43.605 193.238 43.402
 c 193.238 43.605 193.137 43.809 193.035 43.91 c h
193.035 43.91 m f
200.668 43.91 m 200.871 43.809 201.176 43.707 201.074 43.402 c 200.77 42.691
 l 199.141 42.691 l 198.938 43.199 l 198.734 43.809 198.938 43.91 199.242
 43.91 c 198.125 43.91 l 198.43 43.91 198.633 43.707 198.836 43.199 c 199.957
 40.246 l 199.855 39.941 199.754 39.738 199.445 39.738 c 200.566 39.738 
l 201.891 43.402 l 201.992 43.707 202.094 43.91 202.5 43.91 c 202.5 43.91
 200.668 43.91 200.668 43.91 c h
200.77 42.59 m 199.957 40.348 l 199.141 42.59 l h
200.77 42.59 m f
202.5 44.012 m 200.566 44.012 l 200.566 43.91 l 200.77 43.91 200.871 43.809
 200.871 43.707 c 200.871 43.605 200.871 43.605 200.871 43.504 c 200.566
 42.793 l 198.938 42.793 l 198.734 43.301 l 198.633 43.504 198.633 43.707
 198.734 43.809 c 198.734 43.91 198.836 43.91 199.039 43.91 c 199.039 44.012
 l 197.82 44.012 l 197.82 43.91 l 198.023 43.91 198.227 43.809 198.43 43.199
 c 199.551 40.348 l 199.445 40.043 199.344 39.941 199.141 39.941 c 199.039
 39.941 l 199.039 39.738 l 200.262 39.738 l 201.586 43.402 l 201.688 43.707
 201.789 43.809 202.094 43.809 c 202.094 44.012 l h
200.973 43.91 m 202.195 43.91 l 201.992 43.809 201.992 43.707 201.891 43.504
 c 200.566 39.84 l 199.754 39.84 l 199.855 39.941 199.957 40.043 200.059
 40.246 c 201.176 43.402 l 201.176 43.504 201.176 43.605 201.176 43.707 
c 201.074 43.809 200.973 43.809 200.973 43.91 c h
198.43 43.91 m 198.938 43.91 l 198.836 43.809 l 198.734 43.707 198.734 
43.605 198.836 43.402 c 198.734 43.605 198.531 43.809 198.43 43.91 c h
199.242 42.488 m 200.668 42.488 l 199.957 40.453 l h
199.242 42.488 m f
34.598 28.547 m 34.699 28.547 34.699 28.445 34.699 28.344 c 34.699 28.238
 34.598 28.238 34.496 28.238 c 34.496 28.238 m 30.016 28.852 l 29.812 28.852
 29.812 28.648 29.812 28.648 c 29.812 28.238 29.812 27.934 29.812 27.527
 c 29.812 24.27 29.812 21.016 29.812 17.758 c 29.914 14.605 31.543 13.484
 34.496 14.301 c 36.02 14.707 36.227 15.215 35.41 16.539 c 35.105 17.047
 34.801 17.555 34.699 18.164 c 34.598 19.082 35.004 19.895 35.918 20.406
 c 36.633 20.812 37.445 20.711 38.16 20.098 c 38.871 19.488 39.176 18.676
 38.871 17.758 c 38.566 16.844 37.953 16.027 37.242 15.418 c 35.715 14.195
 34.09 13.688 32.156 13.789 c 28.492 13.891 25.539 16.641 25.539 20.305 
c 25.539 23.254 25.539 26.203 25.438 29.156 c 25.438 29.156 25.438 29.359
 25.234 29.359 c 21.98 29.766 l 21.773 29.766 21.773 29.562 21.773 29.562
 c 21.773 28.648 21.773 12.875 21.773 5.75 c 21.773 5.039 21.773 4.43 21.773
 3.715 c 22.082 0.766 23.504 -0.254 26.355 0.562 c 27.98 0.969 28.188 1.477
 27.371 2.902 c 27.066 3.41 26.863 3.918 26.762 4.43 c 26.66 5.344 27.066
 6.16 27.879 6.668 c 28.695 7.074 29.406 6.973 30.121 6.465 c 30.832 5.953
 31.137 5.141 30.934 4.227 c 30.73 3.41 30.324 2.699 29.711 2.191 c 27.777
 0.359 25.539 -0.457 22.895 0.258 c 19.84 1.07 17.398 3.004 17.5 7.074 c
 17.602 10.23 17.5 13.484 17.5 16.641 c 17.5 21.117 17.5 25.594 17.5 30.07
 c 17.5 30.07 17.5 30.273 17.297 30.273 c 13.633 30.684 l 13.43 30.684 13.43
 30.582 13.43 30.48 c 13.43 29.766 13.43 29.055 13.43 28.238 c 13.43 26.613
 13.43 24.984 13.43 23.355 c 13.43 21.93 13.43 20.508 13.43 19.082 c 13.43
 17.758 12.922 16.539 12.008 15.52 c 9.359 12.57 4.477 12.367 1.523 15.012
 c 0.812 15.621 0.305 16.336 0.102 17.25 c -0.203 18.27 0.203 19.184 1.117
 19.793 c 2.137 20.508 3.051 20.406 3.867 19.59 c 4.477 18.879 4.578 17.859
 4.07 16.844 c 3.867 16.438 3.559 16.027 3.457 15.621 c 3.152 14.91 3.355
 14.504 4.07 14.195 c 4.781 13.891 5.492 13.789 6.207 13.688 c 7.629 13.586
 8.547 14.301 9.055 15.52 c 9.258 16.336 9.258 17.047 9.258 17.859 c 9.258
 21.422 9.258 24.984 9.258 28.547 c 9.258 29.461 9.258 30.273 9.258 31.191
 c 9.258 31.293 9.258 31.395 9.055 31.395 c 5.188 32.004 l 5.086 32.004 
5.086 32.105 5.086 32.207 c 5.086 32.309 5.188 32.309 5.289 32.309 c 9.156
 31.801 l 9.258 31.801 9.258 31.902 9.258 32.004 c 9.258 34.344 9.258 36.688
 9.258 39.027 c 9.258 39.84 9.258 40.555 8.953 41.266 c 8.445 42.59 7.527
 43.301 6.105 43.199 c 5.492 43.199 4.781 42.996 4.172 42.793 c 3.152 42.488
 2.949 41.977 3.457 40.961 c 3.762 40.453 4.07 39.941 4.273 39.332 c 4.477
 38.312 4.172 37.398 3.355 36.789 c 2.543 36.277 1.727 36.379 0.914 36.992
 c 0.102 37.602 -0.102 38.52 0.305 39.535 c 0.812 40.859 1.832 41.672 3.051
 42.488 c 6.816 44.828 14.043 42.488 13.633 36.379 c 13.531 34.652 13.531
 33.023 13.531 31.293 c 13.531 31.191 13.531 31.09 13.734 31.09 c 17.398
 30.582 l 17.602 30.582 17.602 30.785 17.602 30.785 c 17.602 35.16 17.602
 39.535 17.5 43.809 c 17.5 46.352 17.5 48.898 17.5 51.441 c 17.5 52.254 
17.398 53.07 17.195 53.781 c 16.688 55.004 15.871 55.613 14.551 55.613 c
 13.941 55.613 13.328 55.512 12.719 55.309 c 11.395 54.902 11.191 54.492
 11.801 53.172 c 11.906 52.969 12.008 52.766 12.211 52.562 c 12.414 52.254
 12.516 51.848 12.617 51.543 c 12.719 50.629 12.312 49.812 11.496 49.305
 c 10.785 48.898 9.867 49 9.156 49.609 c 8.445 50.219 8.242 51.035 8.547
 51.949 c 8.75 52.664 9.156 53.273 9.664 53.883 c 12.211 56.426 16.383 56.734
 19.434 54.492 c 20.859 53.477 21.773 52.051 21.773 50.219 c 21.875 47.371
 21.875 44.523 21.875 41.672 c 21.875 37.906 21.875 34.141 21.875 30.379
 c 21.875 30.273 21.875 30.172 22.082 30.172 c 25.336 29.766 l 25.539 29.766
 25.539 29.969 25.539 29.969 c 25.539 32.414 25.539 34.855 25.539 37.195
 c 25.539 38.723 25.945 40.145 26.965 41.367 c 29.711 44.523 34.801 44.625
 37.75 41.773 c 38.363 41.164 38.77 40.555 38.973 39.738 c 39.176 38.926
 39.074 38.109 38.363 37.602 c 37.75 37.094 36.938 36.789 36.125 37.195 
c 35.309 37.602 34.801 38.211 34.801 39.129 c 34.801 39.637 35.004 40.145
 35.207 40.656 c 35.41 41.062 35.613 41.367 35.816 41.773 c 36.125 42.488
 35.918 42.895 35.207 43.199 c 34.496 43.504 33.68 43.707 32.867 43.707 
c 31.543 43.707 30.629 43.098 30.223 41.773 c 29.914 41.062 29.914 40.246
 29.914 39.434 c 29.914 36.074 29.914 32.82 29.914 29.461 c 29.914 29.461
 29.914 29.258 30.121 29.156 c 34.598 28.547 l 17.602 30.684 m 17.602 30.785
 17.602 30.785 17.602 30.684 c h
21.875 30.172 m h
21.875 30.172 m f
Q Q
showpage
%%Trailer
end
%%EOF
